사회과 예비교사를 위한 AIㆍ디지털 역량 강화 워크숍 - | Day 2 | 데이터 수집 및 정련화
…
Code

Result

library(tidyverse)
library(rvest)
url <- "https://en.wikipedia.org/wiki/List_of_countries_and_dependencies_by_population"
my_table <- url |> 
  read_html() |> 
  html_element("table") |> 
  html_table()

my_table

# A tibble: 240 × 7
   ``      Location    Population `% ofworld` Date  Source (official or …¹ Notes
   <chr>   <chr>       <chr>      <chr>       <chr> <chr>                  <chr>
 1 –       World       8,119,000… 100%        1 Ju… UN projection[1][3]    ""   
 2 1/2 [b] China       1,409,670… 17.3%       31 D… Official estimate[5]   "[c]"
 3 1/2 [b] India       1,404,910… 17.3%       1 Ju… Official projection[6] "[d]"
 4 3       United Sta… 335,893,2… 4.1%        1 Ja… Official projection[7] "[e]"
 5 4       Indonesia   282,477,5… 3.5%        31 J… National annual proje… ""   
 6 5       Pakistan    241,499,4… 3.0%        1 Ma… 2023 census result[9]  "[f]"
 7 6       Nigeria     223,800,0… 2.8%        1 Ju… Official projection[1… ""   
 8 7       Brazil      203,080,7… 2.5%        1 Au… 2022 census result[11] ""   
 9 8       Bangladesh  169,828,9… 2.1%        14 J… 2022 census result[12] ""   
10 9       Russia      146,150,7… 1.8%        1 Ja… Official estimate[13]  "[g]"
# ℹ 230 more rows
# ℹ abbreviated name: ¹​`Source (official or fromthe United Nations)`
…
my_table_new

# A tibble: 240 × 5
   location      population pop_pct date       source                       
   <chr>              <dbl>   <dbl> <date>     <chr>                        
 1 World         8119000000   100   2024-07-01 UN projection[1][3]          
 2 China         1409670000    17.3 2023-12-31 Official estimate[5]         
 3 India         1404910000    17.3 2024-07-01 Official projection[6]       
 4 United States  335893238     4.1 2024-01-01 Official projection[7]       
 5 Indonesia      282477584     3.5 NA         National annual projection[8]
 6 Pakistan       241499431     3   2023-03-01 2023 census result[9]        
 7 Nigeria        223800000     2.8 2023-07-01 Official projection[10]      
 8 Brazil         203080756     2.5 2022-08-01 2022 census result[11]       
 9 Bangladesh     169828911     2.1 2022-06-14 2022 census result[12]       
10 Russia         146150789     1.8 2024-01-01 Official estimate[13]        
# ℹ 230 more rows
…
웹데이터 불러오기: googlesheet4 패키지

Code

Result

library(googlesheets4)
gs4_deauth()
read_sheet("https://docs.google.com/spreadsheets/d/1U6Cf_qEOhiR9AZqTqS3mbMF3zt2db48ZP5v3rkrAEJY/edit#gid=780868077")

library(googlesheets4)
gs4_deauth()
read_sheet("https://docs.google.com/spreadsheets/d/1U6Cf_qEOhiR9AZqTqS3mbMF3zt2db48ZP5v3rkrAEJY/edit#gid=780868077")

# A tibble: 624 × 6
   country continent  year lifeExp      pop gdpPercap
   <chr>   <chr>     <dbl>   <dbl>    <dbl>     <dbl>
 1 Algeria Africa     1952    43.1  9279525     2449.
 2 Algeria Africa     1957    45.7 10270856     3014.
 3 Algeria Africa     1962    48.3 11000948     2551.
 4 Algeria Africa     1967    51.4 12760499     3247.
 5 Algeria Africa     1972    54.5 14760787     4183.
 6 Algeria Africa     1977    58.0 17152804     4910.
 7 Algeria Africa     1982    61.4 20033753     5745.
 8 Algeria Africa     1987    65.8 23254956     5681.
 9 Algeria Africa     1992    67.7 26298373     5023.
10 Algeria Africa     1997    69.2 29072015     4797.
# ℹ 614 more rows
…
